Survival Analysis
…
---

## Estimating the survival curve

```r
dat
```

```
## # A tibble: 10 × 2
##   times event
##   <dbl> <dbl>
## 1   4.5     1
## 2   7.5     1
## 3   8.5     0
## 4  11.5     1
## 5  13.5     0
## 6  15.5     1
## # … with 4 more rows
```
…
